R4SPA: R Packages and Training to enable Statistical Programming in R
…
Now on CRAN: https://CRAN.R-project.org/package=diffdf

Check out github: https://github.com/gowerc/diffdf

---
# diffdf example of use:

```r
library(diffdf)
test_data
```

```
## # A tibble: 30 x 11
##       ID GROUP1 GROUP2 INTEGER BINARY DATE       DATETIME           
##    <int>  <dbl>  <int>   <int> <chr>  <date>     <dttm>             
##  1     1      1      1      41 M      2003-06-22 2000-11-28 20:40:53
##  2     2      1      2      41 F      2016-12-03 1994-08-30 19:05:02
##  3     3      1      3      41 M      2016-05-08 1992-09-11 11:30:18
##  4     4      1      4      32 M      2015-06-02 2007-11-12 11:28:29
##  5     5      1      5      55 F      1986-04-15 1998-08-04 01:27:49
##  6     6      1      6      33 M      1994-05-25 2001-12-05 08:24:35
##  7     7      1      7      40 F      2009-02-08 1986-11-02 18:13:03
##  8     8      1      8      44 F      2020-07-21 1998-08-22 05:23:24
##  9     9      1      9      51 F      1967-05-25 2003-01-03 22:09:29
## 10    10      1     10      40 M      2044-03-11 1996-04-19 11:10:12
## # ... with 20 more rows, and 4 more variables: CONTINUOUS <dbl>,
## #   CATEGORICAL <fct>, LOGICAL <lgl>, CHARACTER <chr>
```
…
